<?xml version="1.0" encoding="UTF-8" standalone="no"?>
<!-- Created with Inkscape (http://www.inkscape.org/) -->

<svg
   xmlns:dc="http://purl.org/dc/elements/1.1/"
   xmlns:cc="http://creativecommons.org/ns#"
   xmlns:rdf="http://www.w3.org/1999/02/22-rdf-syntax-ns#"
   xmlns:svg="http://www.w3.org/2000/svg"
   xmlns="http://www.w3.org/2000/svg"
   xmlns:sodipodi="http://sodipodi.sourceforge.net/DTD/sodipodi-0.dtd"
   xmlns:inkscape="http://www.inkscape.org/namespaces/inkscape"
   width="200.90552"
   height="200"
   viewBox="0 0 53.156251 52.916668"
   version="1.1"
   id="svg5267"
   inkscape:version="0.92.1 r15371"
   sodipodi:docname="drawing2.svg">
  <defs
     id="defs5261">
    <clipPath
       clipPathUnits="userSpaceOnUse"
       id="clipPath74">
      <path
         d="M 0,500 H 500 V 0 H 0 Z"
         id="path72"
         inkscape:connector-curvature="0" />
    </clipPath>
    <clipPath
       clipPathUnits="userSpaceOnUse"
       id="clipPath314">
      <path
         d="M 0,500 H 500 V 0 H 0 Z"
         id="path312"
         inkscape:connector-curvature="0" />
    </clipPath>
  </defs>
  <sodipodi:namedview
     id="base"
     pagecolor="#ffffff"
     bordercolor="#666666"
     borderopacity="1.0"
     inkscape:pageopacity="0.0"
     inkscape:pageshadow="2"
     inkscape:zoom="0.98994949"
     inkscape:cx="17.058313"
     inkscape:cy="116.07323"
     inkscape:document-units="mm"
     inkscape:current-layer="layer1"
     showgrid="false"
     inkscape:window-width="1366"
     inkscape:window-height="705"
     inkscape:window-x="-8"
     inkscape:window-y="-8"
     inkscape:window-maximized="1"
     units="px" />
  <metadata
     id="metadata5264">
    <rdf:RDF>
      <cc:Work
         rdf:about="">
        <dc:format>image/svg+xml</dc:format>
        <dc:type
           rdf:resource="http://purl.org/dc/dcmitype/StillImage" />
        <dc:title></dc:title>
      </cc:Work>
    </rdf:RDF>
  </metadata>
  <g
     inkscape:label="Layer 1"
     inkscape:groupmode="layer"
     id="layer1"
     transform="translate(0,-244.11667)">
    <g
       transform="matrix(0.47052906,0,0,-0.47052906,-92.31622,461.05334)"
       id="g308">
      <g
         id="g310"
         clip-path="url(#clipPath314)">
        <g
           id="g316"
           transform="translate(251.082,411.7256)">
          <path
             d="M 0,0 -17.231,17.231 -26.517,7.945 0,-7.424 Z"
             style="fill:#094da0;fill-opacity:1;fill-rule:nonzero;stroke:none"
             id="path318"
             inkscape:connector-curvature="0" />
        </g>
        <path
           d="m 266.834,400.314 h -4.252 v 4.252 h 4.252 z"
           style="fill:#094da0;fill-opacity:1;fill-rule:nonzero;stroke:none"
           id="path320"
           inkscape:connector-curvature="0" />
        <path
           d="m 273.207,400.314 h -4.252 v 4.252 h 4.252 z"
           style="fill:#094da0;fill-opacity:1;fill-rule:nonzero;stroke:none"
           id="path322"
           inkscape:connector-curvature="0" />
        <path
           d="m 266.834,394.066 h -4.252 v 4.252 h 4.252 z"
           style="fill:#094da0;fill-opacity:1;fill-rule:nonzero;stroke:none"
           id="path324"
           inkscape:connector-curvature="0" />
        <path
           d="m 273.207,394.066 h -4.252 v 4.252 h 4.252 z"
           style="fill:#094da0;fill-opacity:1;fill-rule:nonzero;stroke:none"
           id="path326"
           inkscape:connector-curvature="0" />
        <g
           id="g328"
           transform="translate(233.8511,381.1382)">
          <path
             d="M 0,0 C 7.064,3.928 9.19,4.05 15.564,4.595 21.938,5.14 28.51,2.368 34.731,0.875 40.952,-0.618 47.364,-2.033 53.698,-1.133 61.612,-0.008 71.064,5.922 72.893,17.8 68.899,10.874 61.612,5.948 53.698,4.823 47.364,3.923 40.952,5.338 34.731,6.831 28.51,8.324 22.171,9.916 15.797,9.371 9.423,8.826 2.88,5.712 0,0"
             style="fill:#237a09;fill-opacity:1;fill-rule:nonzero;stroke:none"
             id="path330"
             inkscape:connector-curvature="0" />
        </g>
        <g
           id="g332"
           transform="translate(297.582,394.0664)">
          <path
             d="m 0,0 -34.89,34.89 -9.286,-9.286 z"
             style="fill:#094da0;fill-opacity:1;fill-rule:nonzero;stroke:none"
             id="path334"
             inkscape:connector-curvature="0" />
        </g>
        <g
           id="g336"
           transform="translate(262.6919,428.9565)">
          <path
             d="m 0,0 -34.89,-34.89 h 20 L 0,-20 c 5.523,5.523 5.523,14.477 0,20"
             style="fill:#0eacdb;fill-opacity:1;fill-rule:nonzero;stroke:none"
             id="path338"
             inkscape:connector-curvature="0" />
        </g>
        <g
           id="g340"
           transform="translate(233.8511,428.9565)">
          <path
             d="m 0,0 -34.89,-34.89 h 20 L 0,-20 c 5.523,5.523 5.523,14.477 0,20"
             style="fill:#0eacdb;fill-opacity:1;fill-rule:nonzero;stroke:none"
             id="path342"
             inkscape:connector-curvature="0" />
        </g>
      </g>
    </g>
  </g>
</svg>
